{"failedCount":0,"prefixedPath":"src\/main\/java\/Get.feature","packageQualifiedName":"src.main.java.Get","loopIndex":-1,"relativePath":"src\/main\/java\/Get.feature","scenarioResults":[{"sectionIndex":0,"stepResults":[{"result":{"nanos":78842800,"millis":78.8428,"status":"passed"},"step":{"line":5,"prefix":"Given","index":0,"text":"url 'https:\/\/reqres.in\/api\/users?page=2'"}},{"result":{"nanos":656419900,"millis":656.4199,"status":"passed"},"step":{"line":6,"prefix":"When","index":1,"text":"method GET"},"stepLog":"10:39:39.589 request:\n1 > GET https:\/\/reqres.in\/api\/users?page=2\n1 > Host: reqres.in\n1 > Connection: Keep-Alive\n1 > User-Agent: Apache-HttpClient\/4.5.13 (Java\/1.8.0_171)\n1 > Accept-Encoding: gzip,deflate\n\n\n10:39:39.808 response time in milliseconds: 203\n1 < 200\n1 < Date: Thu, 06 Jan 2022 05:09:39 GMT\n1 < Content-Type: application\/json; charset=utf-8\n1 < Transfer-Encoding: chunked\n1 < Connection: keep-alive\n1 < x-powered-by: Express\n1 < access-control-allow-origin: *\n1 < etag: W\/\"406-ut0vzoCuidvyMf8arZpMpJ6ZRDw\"\n1 < via: 1.1 vegur\n1 < Cache-Control: max-age=14400\n1 < CF-Cache-Status: HIT\n1 < Age: 3244\n1 < Expect-CT: max-age=604800, report-uri=\"https:\/\/report-uri.cloudflare.com\/cdn-cgi\/beacon\/expect-ct\"\n1 < Report-To: {\"endpoints\":[{\"url\":\"https:\\\/\\\/a.nel.cloudflare.com\\\/report\\\/v3?s=aNlymt7WFpG2cWga1IgGmviKGUikZG7%2B2Y%2Bun8jtZaN8MaMwUl7eQAsS%2B6GxxDCjs%2FyRrF%2FCL3%2FRsKZSrIqRNnWdJLfKbe%2BJF5adkkZE6cgw6uPAcCSIM1rbBks%3D\"}],\"group\":\"cf-nel\",\"max_age\":604800}\n1 < NEL: {\"success_fraction\":0,\"report_to\":\"cf-nel\",\"max_age\":604800}\n1 < Vary: Accept-Encoding\n1 < Server: cloudflare\n1 < CF-RAY: 6c926f7c895c2e2f-BOM\n1 < alt-svc: h3=\":443\"; ma=86400, h3-29=\":443\"; ma=86400, h3-28=\":443\"; ma=86400, h3-27=\":443\"; ma=86400\n{\"page\":2,\"per_page\":6,\"total\":12,\"total_pages\":2,\"data\":[{\"id\":7,\"email\":\"michael.lawson@reqres.in\",\"first_name\":\"Michael\",\"last_name\":\"Lawson\",\"avatar\":\"https:\/\/reqres.in\/img\/faces\/7-image.jpg\"},{\"id\":8,\"email\":\"lindsay.ferguson@reqres.in\",\"first_name\":\"Lindsay\",\"last_name\":\"Ferguson\",\"avatar\":\"https:\/\/reqres.in\/img\/faces\/8-image.jpg\"},{\"id\":9,\"email\":\"tobias.funke@reqres.in\",\"first_name\":\"Tobias\",\"last_name\":\"Funke\",\"avatar\":\"https:\/\/reqres.in\/img\/faces\/9-image.jpg\"},{\"id\":10,\"email\":\"byron.fields@reqres.in\",\"first_name\":\"Byron\",\"last_name\":\"Fields\",\"avatar\":\"https:\/\/reqres.in\/img\/faces\/10-image.jpg\"},{\"id\":11,\"email\":\"george.edwards@reqres.in\",\"first_name\":\"George\",\"last_name\":\"Edwards\",\"avatar\":\"https:\/\/reqres.in\/img\/faces\/11-image.jpg\"},{\"id\":12,\"email\":\"rachel.howell@reqres.in\",\"first_name\":\"Rachel\",\"last_name\":\"Howell\",\"avatar\":\"https:\/\/reqres.in\/img\/faces\/12-image.jpg\"}],\"support\":{\"url\":\"https:\/\/reqres.in\/#support-heading\",\"text\":\"To keep ReqRes free, contributions towards server costs are appreciated!\"}}\n"},{"result":{"nanos":12600,"millis":0.0126,"status":"passed"},"step":{"line":7,"prefix":"Then","index":2,"text":"status 200"}},{"result":{"nanos":72793500,"millis":72.7935,"status":"passed"},"step":{"line":8,"prefix":"Then","index":3,"text":"print response"},"stepLog":"10:39:39.902 [print] {\n  \"page\": 2,\n  \"per_page\": 6,\n  \"total\": 12,\n  \"total_pages\": 2,\n  \"data\": [\n    {\n      \"id\": 7,\n      \"email\": \"michael.lawson@reqres.in\",\n      \"first_name\": \"Michael\",\n      \"last_name\": \"Lawson\",\n      \"avatar\": \"https:\/\/reqres.in\/img\/faces\/7-image.jpg\"\n    },\n    {\n      \"id\": 8,\n      \"email\": \"lindsay.ferguson@reqres.in\",\n      \"first_name\": \"Lindsay\",\n      \"last_name\": \"Ferguson\",\n      \"avatar\": \"https:\/\/reqres.in\/img\/faces\/8-image.jpg\"\n    },\n    {\n      \"id\": 9,\n      \"email\": \"tobias.funke@reqres.in\",\n      \"first_name\": \"Tobias\",\n      \"last_name\": \"Funke\",\n      \"avatar\": \"https:\/\/reqres.in\/img\/faces\/9-image.jpg\"\n    },\n    {\n      \"id\": 10,\n      \"email\": \"byron.fields@reqres.in\",\n      \"first_name\": \"Byron\",\n      \"last_name\": \"Fields\",\n      \"avatar\": \"https:\/\/reqres.in\/img\/faces\/10-image.jpg\"\n    },\n    {\n      \"id\": 11,\n      \"email\": \"george.edwards@reqres.in\",\n      \"first_name\": \"George\",\n      \"last_name\": \"Edwards\",\n      \"avatar\": \"https:\/\/reqres.in\/img\/faces\/11-image.jpg\"\n    },\n    {\n      \"id\": 12,\n      \"email\": \"rachel.howell@reqres.in\",\n      \"first_name\": \"Rachel\",\n      \"last_name\": \"Howell\",\n      \"avatar\": \"https:\/\/reqres.in\/img\/faces\/12-image.jpg\"\n    }\n  ],\n  \"support\": {\n    \"url\": \"https:\/\/reqres.in\/#support-heading\",\n    \"text\": \"To keep ReqRes free, contributions towards server costs are appreciated!\"\n  }\n}\n \n"},{"result":{"nanos":42958100,"millis":42.9581,"status":"passed"},"step":{"line":9,"prefix":"And","index":4,"text":"match response == {\"page\":2,\"per_page\":6,\"total\":12,\"total_pages\":2,\"data\":[{\"id\":7,\"email\":\"michael.lawson@reqres.in\",\"first_name\":\"Michael\",\"last_name\":\"Lawson\",\"avatar\":\"https:\/\/reqres.in\/img\/faces\/7-image.jpg\"},{\"id\":8,\"email\":\"lindsay.ferguson@reqres.in\",\"first_name\":\"Lindsay\",\"last_name\":\"Ferguson\",\"avatar\":\"https:\/\/reqres.in\/img\/faces\/8-image.jpg\"},{\"id\":9,\"email\":\"tobias.funke@reqres.in\",\"first_name\":\"Tobias\",\"last_name\":\"Funke\",\"avatar\":\"https:\/\/reqres.in\/img\/faces\/9-image.jpg\"},{\"id\":10,\"email\":\"byron.fields@reqres.in\",\"first_name\":\"Byron\",\"last_name\":\"Fields\",\"avatar\":\"https:\/\/reqres.in\/img\/faces\/10-image.jpg\"},{\"id\":11,\"email\":\"george.edwards@reqres.in\",\"first_name\":\"George\",\"last_name\":\"Edwards\",\"avatar\":\"https:\/\/reqres.in\/img\/faces\/11-image.jpg\"},{\"id\":12,\"email\":\"rachel.howell@reqres.in\",\"first_name\":\"Rachel\",\"last_name\":\"Howell\",\"avatar\":\"https:\/\/reqres.in\/img\/faces\/12-image.jpg\"}],\"support\":{\"url\":\"https:\/\/reqres.in\/#support-heading\",\"text\":\"To keep ReqRes free, contributions towards server costs are appreciated!\"}} 10:37:58.492 [main] INFO com.intuit.karate - [print] { \"page\": 2, \"per_page\": 6, \"total\": 12, \"total_pages\": 2, \"data\": [ { \"id\": 7, \"email\": \"michael.lawson@reqres.in\", \"first_name\": \"Michael\", \"last_name\": \"Lawson\", \"avatar\": \"https:\/\/reqres.in\/img\/faces\/7-image.jpg\" }, { \"id\": 8, \"email\": \"lindsay.ferguson@reqres.in\", \"first_name\": \"Lindsay\", \"last_name\": \"Ferguson\", \"avatar\": \"https:\/\/reqres.in\/img\/faces\/8-image.jpg\" }, { \"id\": 9, \"email\": \"tobias.funke@reqres.in\", \"first_name\": \"Tobias\", \"last_name\": \"Funke\", \"avatar\": \"https:\/\/reqres.in\/img\/faces\/9-image.jpg\" }, { \"id\": 10, \"email\": \"byron.fields@reqres.in\", \"first_name\": \"Byron\", \"last_name\": \"Fields\", \"avatar\": \"https:\/\/reqres.in\/img\/faces\/10-image.jpg\" }, { \"id\": 11, \"email\": \"george.edwards@reqres.in\", \"first_name\": \"George\", \"last_name\": \"Edwards\", \"avatar\": \"https:\/\/reqres.in\/img\/faces\/11-image.jpg\" }, { \"id\": 12, \"email\": \"rachel.howell@reqres.in\", \"first_name\": \"Rachel\", \"last_name\": \"Howell\", \"avatar\": \"https:\/\/reqres.in\/img\/faces\/12-image.jpg\" } ], \"support\": { \"url\": \"https:\/\/reqres.in\/#support-heading\", \"text\": \"To keep ReqRes free, contributions towards server costs are appreciated!\" } }"}}],"executorName":"main","line":4,"name":"get user details - user not found","description":"","durationMillis":851.0269,"startTime":1641445779089,"failed":false,"refId":"[1:4]","endTime":1641445779949,"exampleIndex":-1}],"callDepth":0,"name":"GET API feature","description":"","resultDate":"2022-01-06 10:39:39 AM","durationMillis":851.0269,"passedCount":1}